{
    "AuxAudioDevice1": {
        "balance": 0.5,
        "deinterlace_field_order": 0,
        "deinterlace_mode": 0,
        "enabled": true,
        "flags": 0,
        "hotkeys": {
            "libobs.mute": [],
            "libobs.push-to-mute": [],
            "libobs.push-to-talk": [],
            "libobs.unmute": []
        },
        "id": "pulse_input_capture",
        "mixers": 255,
        "monitoring_type": 0,
        "muted": true,
        "name": "Mic/Aux",
        "prev_ver": 419430408,
        "private_settings": {
            "mixer_hidden": true
        },
        "push-to-mute": false,
        "push-to-mute-delay": 0,
        "push-to-talk": false,
        "push-to-talk-delay": 0,
        "settings": {
            "device_id": "default"
        },
        "sync": 0,
        "versioned_id": "pulse_input_capture",
        "volume": 1.0
    },
    "DesktopAudioDevice1": {
        "balance": 0.5,
        "deinterlace_field_order": 0,
        "deinterlace_mode": 0,
        "enabled": true,
        "flags": 0,
        "hotkeys": {
            "libobs.mute": [],
            "libobs.push-to-mute": [],
            "libobs.push-to-talk": [],
            "libobs.unmute": []
        },
        "id": "pulse_output_capture",
        "mixers": 255,
        "monitoring_type": 0,
        "muted": false,
        "name": "Desktop Audio",
        "prev_ver": 419430408,
        "private_settings": {},
        "push-to-mute": false,
        "push-to-mute-delay": 0,
        "push-to-talk": false,
        "push-to-talk-delay": 0,
        "settings": {
            "device_id": "default"
        },
        "sync": 0,
        "versioned_id": "pulse_output_capture",
        "volume": 1.0
    },
    "current_program_scene": "Scene 2",
    "current_scene": "Scene 2",
    "current_transition": "Fade",
    "groups": [],
    "modules": {
        "advanced-scene-switcher": {
            "active": true,
            "autoStopEnable": false,
            "autoStopSceneName": "",
            "defaultTransitions": [],
            "executableSwitches": [],
            "fileSwitches": [],
            "idleEnable": false,
            "idleSceneName": "",
            "idleTime": 60,
            "idleTransitionName": "",
            "ignoreIdleWindows": [],
            "ignoreWindows": [],
            "interval": 300,
            "mediaSwitches": [],
            "non_matching_scene": "",
            "pauseScenes": [],
            "pauseWindows": [],
            "priority0": 0,
            "priority1": 1,
            "priority2": 2,
            "priority3": 3,
            "priority4": 4,
            "priority5": 5,
            "priority6": 6,
            "randomSwitches": [],
            "readEnabled": false,
            "readPath": "",
            "sceneRoundTrip": [],
            "sceneTransitions": [],
            "screenRegion": [],
            "switch_if_not_matching": 0,
            "switches": [],
            "writeEnabled": false,
            "writePath": ""
        },
        "auto-scene-switcher": {
            "active": false,
            "interval": 300,
            "non_matching_scene": "",
            "switch_if_not_matching": false,
            "switches": []
        },
        "output-timer": {
            "autoStartRecordTimer": false,
            "autoStartStreamTimer": false,
            "pauseRecordTimer": true,
            "recordTimerHours": 0,
            "recordTimerMinutes": 0,
            "recordTimerSeconds": 30,
            "streamTimerHours": 0,
            "streamTimerMinutes": 0,
            "streamTimerSeconds": 30
        },
        "scrab": {
            "capture_hotkey": [],
            "recapture_hotkey": []
        },
        "scripts-tool": []
    },
    "name": "Untitled",
    "preview_locked": false,
    "quick_transitions": [
        {
            "duration": 300,
            "fade_to_black": false,
            "hotkeys": [],
            "id": 1,
            "name": "Cut"
        },
        {
            "duration": 300,
            "fade_to_black": false,
            "hotkeys": [],
            "id": 2,
            "name": "Fade"
        },
        {
            "duration": 300,
            "fade_to_black": true,
            "hotkeys": [],
            "id": 3,
            "name": "Fade"
        }
    ],
    "saved_projectors": [],
    "scaling_enabled": false,
    "scaling_level": 0,
    "scaling_off_x": 0.0,
    "scaling_off_y": 0.0,
    "scene_order": [
        {
            "name": "Scene 2"
        }
    ],
    "sources": [
        {
            "balance": 0.5,
            "deinterlace_field_order": 0,
            "deinterlace_mode": 0,
            "enabled": true,
            "flags": 0,
            "hotkeys": {},
            "id": "xcomposite_input",
            "mixers": 0,
            "monitoring_type": 0,
            "muted": false,
            "name": "Window Capture (Xcomposite)",
            "prev_ver": 419430408,
            "private_settings": {},
            "push-to-mute": false,
            "push-to-mute-delay": 0,
            "push-to-talk": false,
            "push-to-talk-delay": 0,
            "settings": {
                "capture_window": "77594632\r\nclassroom-1 - Discord\r\ndiscord",
                "cut_left": 310
            },
            "sync": 0,
            "versioned_id": "xcomposite_input",
            "volume": 1.0
        },
        {
            "balance": 0.5,
            "deinterlace_field_order": 0,
            "deinterlace_mode": 0,
            "enabled": true,
            "flags": 0,
            "hotkeys": {
                "OBSBasic.SelectScene": [],
                "libobs.hide_scene_item.Window Capture (Xcomposite)": [],
                "libobs.show_scene_item.Window Capture (Xcomposite)": []
            },
            "id": "scene",
            "mixers": 0,
            "monitoring_type": 0,
            "muted": false,
            "name": "Scene 2",
            "prev_ver": 419430408,
            "private_settings": {},
            "push-to-mute": false,
            "push-to-mute-delay": 0,
            "push-to-talk": false,
            "push-to-talk-delay": 0,
            "settings": {
                "custom_size": false,
                "id_counter": 1,
                "items": [
                    {
                        "align": 5,
                        "bounds": {
                            "x": 0.0,
                            "y": 0.0
                        },
                        "bounds_align": 0,
                        "bounds_type": 0,
                        "crop_bottom": 0,
                        "crop_left": 0,
                        "crop_right": 0,
                        "crop_top": 0,
                        "group_item_backup": false,
                        "id": 1,
                        "locked": false,
                        "name": "Window Capture (Xcomposite)",
                        "pos": {
                            "x": 40.0,
                            "y": -38.0
                        },
                        "private_settings": {},
                        "rot": 0.0,
                        "scale": {
                            "x": 0.77828347682952881,
                            "y": 0.77854329347610474
                        },
                        "scale_filter": "disable",
                        "visible": true
                    }
                ]
            },
            "sync": 0,
            "versioned_id": "scene",
            "volume": 1.0
        }
    ],
    "transition_duration": 300,
    "transitions": []
}